{
  "requiresCompatibilities": [
    "EC2"
  ],
  "family": "dpiaTaskDef",
  "containerDefinitions": [
    {
      "name": "dpia",
      "image": "344250484034.dkr.ecr.us-east-2.amazonaws.com/harpocrates/dpia:1.6.4",
      "memory": 1024,
      "logConfiguration": {
        "logDriver": "awslogs",
        "secretOptions": null,
        "options": {
          "awslogs-group": "dpia-logs",
          "awslogs-region": "eu-north-1",
          "awslogs-create-group": "true",
          "awslogs-stream-prefix": "dpia"
        }
      },
      "portMappings": [
        {
          "containerPort": 8097,
          "hostPort": 8097,
          "protocol": "tcp"
        }
      ],
      "mountPoints": [
        {
          "containerPath": "/etc/privacyone/dpia",
          "sourceVolume": "dpiaVol"
        }
      ]
    }
  ],
  "volumes": [
    {
      "name": "dpiaVol",
      "host": {
        "sourcePath": "/etc/privacyone/dpia"
      }
    }
  ]
}